<svg width="75" height="75" viewBox="0 0 75 75" fill="none" xmlns="http://www.w3.org/2000/svg">
<path d="M63.2812 9.375H25.7812C25.1596 9.375 24.5635 9.62193 24.124 10.0615C23.6844 10.501 23.4375 11.0971 23.4375 11.7188V23.4375H11.7188C11.0971 23.4375 10.501 23.6844 10.0615 24.124C9.62193 24.5635 9.375 25.1596 9.375 25.7812V63.2812C9.375 63.9029 9.62193 64.499 10.0615 64.9385C10.501 65.3781 11.0971 65.625 11.7188 65.625H49.2188C49.8404 65.625 50.4365 65.3781 50.876 64.9385C51.3156 64.499 51.5625 63.9029 51.5625 63.2812V51.5625H63.2812C63.9029 51.5625 64.499 51.3156 64.9385 50.876C65.3781 50.4365 65.625 49.8404 65.625 49.2188V11.7188C65.625 11.0971 65.3781 10.501 64.9385 10.0615C64.499 9.62193 63.9029 9.375 63.2812 9.375ZM46.875 60.9375H14.0625V28.125H46.875V60.9375ZM60.9375 46.875H51.5625V25.7812C51.5625 25.1596 51.3156 24.5635 50.876 24.124C50.4365 23.6844 49.8404 23.4375 49.2188 23.4375H28.125V14.0625H60.9375V46.875Z" fill="#0F1932"/>
</svg>
